<svg class="svg" xmlns="http://www.w3.org/2000/svg" viewBox="0 0 50 50" width="50px" height="50px">
    <path class="bg" fill="#FFFFFF" fill-rule="evenodd" clip-rule="evenodd" d="M25,0c13.807,0,25,11.193,25,25c0,13.807-11.193,25-25,25C11.193,50,0,38.807,0,25C0,11.193,11.193,0,25,0z"/>
    <path class="brd" fill="#E2E2E2" d="M25,2c12.682,0,23,10.318,23,23S37.682,48,25,48C12.318,48,2,37.682,2,25S12.318,2,25,2 M25,0C11.193,0,0,11.193,0,25c0,13.807,11.193,25,25,25c13.807,0,25-11.193,25-25C50,11.193,38.807,0,25,0L25,0z"/>
    <path class="ico" fill="#FF0099" fill-rule="evenodd" clip-rule="evenodd" d="M25,10c8.284,0,15,6.716,15,15s-6.716,15-15,15c-8.284,0-15-6.716-15-15S16.716,10,25,10z"/>
</svg>